<?xml version="1.0" encoding="UTF-8"?>
<kml xmlns="http://www.opengis.net/kml/2.2">
	<Document>
		<name>Jotihunt 2019 - Deelnemende Groepen</name>
		<Placemark>
    <styleUrl>#groep</styleUrl>
			<name>Jotihunt HQ</name>
			<description><![CDATA[<h1>Jotihunt HQ</h1><p>Mr. D.U. Stikkerstraat 10, 6842 CW Arnhem</p>]]></description>
			<Point>
				<coordinates>5.8723984,51.9538656,0</coordinates>
			</Point>
		</Placemark>
		<Placemark>
    <styleUrl>#groep</styleUrl>
			<name>Scouting Beuningen '76</name>
			<description><![CDATA[<h1>Scouting Beuningen '76</h1><p>Reekstraat  13a, 6551DR Weurt</p>]]></description>
			<Point>
				<coordinates>5.782183,51.853591,0</coordinates>
			</Point>
		</Placemark>
		<Placemark>
    <styleUrl>#groep</styleUrl>
			<name>Verbraak Margriet Goep</name>
			<description><![CDATA[<h1>Verbraak Margriet Groep</h1><p>Strokelweg  6, 3847 LR Harderwijk</p>]]></description>
			<Point>
				<coordinates>5.6356,52.324744,0</coordinates>
			</Point>
		</Placemark>
		<Placemark>
    <styleUrl>#groep</styleUrl>
			<name>Hélène H. Wilkensgroep - Scouting Voorst</name>
			<description><![CDATA[<h1>Hélène H. Wilkensgroep - Scouting Voorst</h1><p>De Halmen 1a, 7383 BG Voorst</p>]]></description>
			<Point>
				<coordinates>6.139318,52.182118,0</coordinates>
			</Point>
		</Placemark>
		<Placemark>
    <styleUrl>#groep</styleUrl>
			<name>Scouting Ragay Redoz</name>
			<description><![CDATA[<h1>Scouting Ragay Redoz</h1><p>Strokelweg 4, 3847LR Harderwijk</p>]]></description>
			<Point>
				<coordinates>5.63389,52.326292,0</coordinates>
			</Point>
		</Placemark>
		<Placemark>
    <styleUrl>#groep</styleUrl>
			<name>Scouting Bemmel</name>
			<description><![CDATA[<h1>Scouting Bemmel</h1><p>Sportlaan 1f, 6681cd Bemmel</p>]]></description>
			<Point>
				<coordinates>5.905355,51.887226,0</coordinates>
			</Point>
		</Placemark>
		<Placemark>
    <styleUrl>#groep</styleUrl>
			<name>Scouting Sint Joris Zutphen</name>
			<description><![CDATA[<h1>Scouting Sint Joris Zutphen</h1><p>Lindeboomweg 6b, 7213 LS Gorssel</p>]]></description>
			<Point>
				<coordinates>6.224386,52.187361,0</coordinates>
			</Point>
		</Placemark>
		<Placemark>
    <styleUrl>#groep</styleUrl>
			<name>Scouting De Rietkampers en Scouting Don Bosco</name>
			<description><![CDATA[<h1>Scouting De Rietkampers en Scouting Don Bosco</h1><p>Koningstraat 114, 6654 AH Afferden</p>]]></description>
			<Point>
				<coordinates>5.615894,51.882071,0</coordinates>
			</Point>
		</Placemark>
		<Placemark>
    <styleUrl>#groep</styleUrl>
			<name>Subanhara Liemersgroep</name>
			<description><![CDATA[<h1>Subanhara Liemersgroep</h1><p>Slenterweg 29, 6900 CA Zevenaar</p>]]></description>
			<Point>
				<coordinates>6.0661,51.915813,0</coordinates>
			</Point>
		</Placemark>
		<Placemark>
    <styleUrl>#groep</styleUrl>
			<name>Scouting Roothaangroep</name>
			<description><![CDATA[<h1>Scouting Roothaangroep</h1><p>Koekendaalseweg 11, 7004GH Doetinchem</p>]]></description>
			<Point>
				<coordinates>6.3200140000000005,51.949331,0</coordinates>
			</Point>
		</Placemark>
		<Placemark>
    <styleUrl>#groep</styleUrl>
			<name>Scouting Graaf Ottogroep + Jan van Riebeeck + Ulft</name>
			<description><![CDATA[<h1>Scouting Graaf Ottogroep + Jan van Riebeeck + Ulft</h1><p>Bongersstraat 263, 7071DZ Ulft</p>]]></description>
			<Point>
				<coordinates>6.387111,51.882017,0</coordinates>
			</Point>
		</Placemark>
		<Placemark>
    <styleUrl>#groep</styleUrl>
			<name>Scouting Paul Kruger</name>
			<description><![CDATA[<h1>Scouting Paul Kruger</h1><p>Sophiaweg 448, 6523NJ Nijmegen</p>]]></description>
			<Point>
				<coordinates>5.890989,51.825699,0</coordinates>
			</Point>
		</Placemark>
		<Placemark>
    <styleUrl>#groep</styleUrl>
			<name>Scouting Dieren</name>
			<description><![CDATA[<h1>Scouting Dieren</h1><p>Kolonieweg 9, 6952 GZ Dieren</p>]]></description>
			<Point>
				<coordinates>6.076759,52.054173,0</coordinates>
			</Point>
		</Placemark>
		<Placemark>
    <styleUrl>#groep</styleUrl>
			<name>Scouting Hamaland</name>
			<description><![CDATA[<h1>Scouting Hamaland</h1><p>Keppelseweg 249, 7008 BB Doetinchem</p>]]></description>
			<Point>
				<coordinates>6.267348,51.976407,0</coordinates>
			</Point>
		</Placemark>
		<Placemark>
    <styleUrl>#groep</styleUrl>
			<name>Scouting Woezik</name>
			<description><![CDATA[<h1>Scouting Woezik</h1><p>Oud Woeziksestraat 3, 6604 KD Wijchen</p>]]></description>
			<Point>
				<coordinates>5.717446,51.825154,0</coordinates>
			</Point>
		</Placemark>
		<Placemark>
    <styleUrl>#groep</styleUrl>
			<name>Karmijngroep Winssen</name>
			<description><![CDATA[<h1>Karmijngroep Winssen</h1><p>Kennedysingel 8A, 6645 AW Winssen</p>]]></description>
			<Point>
				<coordinates>5.700388,51.881465,0</coordinates>
			</Point>
		</Placemark>
		<Placemark>
    <styleUrl>#groep</styleUrl>
			<name>Aerendheem</name>
			<description><![CDATA[<h1>Aerendheem</h1><p>Lindestraat 26, 6823 JT Arnhem</p>]]></description>
			<Point>
				<coordinates>5.947895,52.004355,0</coordinates>
			</Point>
		</Placemark>
		<Placemark>
    <styleUrl>#groep</styleUrl>
			<name>Scouting Isala Doesburg</name>
			<description><![CDATA[<h1>Scouting Isala Doesburg</h1><p>Forsythiastraat 1, 6982BA Doesburg</p>]]></description>
			<Point>
				<coordinates>6.146011,52.007958,0</coordinates>
			</Point>
		</Placemark>
		<Placemark>
    <styleUrl>#groep</styleUrl>
			<name> Scouting de Paulus Dreumel</name>
			<description><![CDATA[<h1> Scouting de Paulus Dreumel</h1><p>De paulus  1, 6621 CB Dreumel</p>]]></description>
			<Point>
				<coordinates>5.432334,51.848643,0</coordinates>
			</Point>
		</Placemark>
		<Placemark>
    <styleUrl>#groep</styleUrl>
			<name>Alexandergroep Ermelo</name>
			<description><![CDATA[<h1>Alexandergroep Ermelo</h1><p>Watervalweg 175, 3853PS Ermelo</p>]]></description>
			<Point>
				<coordinates>5.594552,52.286734,0</coordinates>
			</Point>
		</Placemark>
		<Placemark>
    <styleUrl>#groep</styleUrl>
			<name>De Zwervers</name>
			<description><![CDATA[<h1>De Zwervers</h1><p>Zandheuvelweg 2-A, 3904 MD Veenendaal</p>]]></description>
			<Point>
				<coordinates>5.536122,52.015291,0</coordinates>
			</Point>
		</Placemark>
		<Placemark>
    <styleUrl>#groep</styleUrl>
			<name>Scouting Langenberggroep Ede</name>
			<description><![CDATA[<h1>Scouting Langenberggroep Ede</h1><p>Buurtmeesterweg 27, 6711 HL Ede</p>]]></description>
			<Point>
				<coordinates>5.690757,52.040356,0</coordinates>
			</Point>
		</Placemark>
		<Placemark>
    <styleUrl>#groep</styleUrl>
			<name>Scouting Saksenheerd</name>
			<description><![CDATA[<h1>Scouting Saksenheerd</h1><p>Terborgseweg 16b, 7084AJ Breedenbroek</p>]]></description>
			<Point>
				<coordinates>6.463857,51.874248,0</coordinates>
			</Point>
		</Placemark>
		<Placemark>
    <styleUrl>#groep</styleUrl>
			<name>Irmin-Taweb</name>
			<description><![CDATA[<h1>Irmin-Taweb</h1><p>Kalkoenweg 23, 3851SB Ermelo</p>]]></description>
			<Point>
				<coordinates>5.620175,52.3154,0</coordinates>
			</Point>
		</Placemark>
		<Placemark>
    <styleUrl>#groep</styleUrl>
			<name>Scouting Groessen en Scouting Zeddam</name>
			<description><![CDATA[<h1>Scouting Groessen en Scouting Zeddam</h1><p>St. Isidorusplein 8, 6923BD Groessen</p>]]></description>
			<Point>
				<coordinates>6.032336,51.931909,0</coordinates>
			</Point>
		</Placemark>
		<Placemark>
    <styleUrl>#groep</styleUrl>
			<name>Scoutinggroep de Bevers / Scouting Malden</name>
			<description><![CDATA[<h1>Scoutinggroep de Bevers / Scouting Malden</h1><p>Staddijk  105, 6537 TW Nijmegen</p>]]></description>
			<Point>
				<coordinates>5.789709,51.809033,0</coordinates>
			</Point>
		</Placemark>
		<Placemark>
    <styleUrl>#groep</styleUrl>
			<name>Scouting Olivier van Noort</name>
			<description><![CDATA[<h1>Scouting Olivier van Noort</h1><p>Sportlaan 2, 6861 AG Oosterbeek</p>]]></description>
			<Point>
				<coordinates>5.820465,51.993176,0</coordinates>
			</Point>
		</Placemark>
		<Placemark>
    <styleUrl>#groep</styleUrl>
			<name>Scouting Valeouwe</name>
			<description><![CDATA[<h1>Scouting Valeouwe</h1><p>Lonapark 10, 7371EH Loenen</p>]]></description>
			<Point>
				<coordinates>6.028039,52.122281,0</coordinates>
			</Point>
		</Placemark>
		<Placemark>
    <styleUrl>#groep</styleUrl>
			<name>Scouting St. Franciscus</name>
			<description><![CDATA[<h1>Scouting St. Franciscus</h1><p>Sint Jorispad 37, 6603 AM Wijchen</p>]]></description>
			<Point>
				<coordinates>5.744995,51.805696,0</coordinates>
			</Point>
		</Placemark>
		<Placemark>
    <styleUrl>#groep</styleUrl>
			<name>Rhedense Pioniers</name>
			<description><![CDATA[<h1>Rhedense Pioniers</h1><p>Arnhemseweg 30, 6991 DP Rheden</p>]]></description>
			<Point>
				<coordinates>6.028053,52.006231,0</coordinates>
			</Point>
		</Placemark>
		<Placemark>
    <styleUrl>#groep</styleUrl>
			<name>Scouting Kontiki</name>
			<description><![CDATA[<h1>Scouting Kontiki</h1><p>Garderenseweg 144b, 3881nc Putten</p>]]></description>
			<Point>
				<coordinates>5.639806,52.244528,0</coordinates>
			</Point>
		</Placemark>
		<Placemark>
    <styleUrl>#groep</styleUrl>
			<name>Scouting Graaf van Gerle</name>
			<description><![CDATA[<h1>Scouting Graaf van Gerle</h1><p>Burgemeester Roozeveld v/d Venlaan 13a, 4191PL Geldermalsen</p>]]></description>
			<Point>
				<coordinates>5.2713,51.877678,0</coordinates>
			</Point>
		</Placemark>
		<Placemark>
    <styleUrl>#groep</styleUrl>
			<name>Scouting Karel de Stoute</name>
			<description><![CDATA[<h1>Scouting Karel de Stoute</h1><p>weezenhof 9311, 6536AE Nijmegen</p>]]></description>
			<Point>
				<coordinates>5.817912,51.801604,0</coordinates>
			</Point>
		</Placemark>
		<Placemark>
    <styleUrl>#groep</styleUrl>
			<name>SBV/Kastanjegroep, Lincolngroep en Anne de Guigné</name>
			<description><![CDATA[<h1>SBV/Kastanjegroep, Lincolngroep en Anne de Guigné</h1><p>Frans Halslaan 101, 6814 JP Arnhem</p>]]></description>
			<Point>
				<coordinates>5.888899,51.992236,0</coordinates>
			</Point>
		</Placemark>
		<Placemark>
    <styleUrl>#groep</styleUrl>
			<name>St Willibrordgroep Didam</name>
			<description><![CDATA[<h1>St Willibrordgroep Didam</h1><p>Julianastraat 41, 6942BB Didam</p>]]></description>
			<Point>
				<coordinates>6.132168,51.938537,0</coordinates>
			</Point>
		</Placemark>
		<Placemark>
    <styleUrl>#groep</styleUrl>
			<name>Scouting Gaanderen &amp; Scouting Gendringen</name>
			<description><![CDATA[<h1>Scouting Gaanderen &amp; Scouting Gendringen</h1><p>Tulpstraat 6, 7081eb Gendringen</p>]]></description>
			<Point>
				<coordinates>6.371148,51.870251,0</coordinates>
			</Point>
		</Placemark>
		<Placemark>
    <styleUrl>#groep</styleUrl>
			<name>St. Christoforus - Lichtdraagsters</name>
			<description><![CDATA[<h1>St. Christoforus - Lichtdraagsters</h1><p>Monnikensteeg 4, 6823 AB Arnhem</p>]]></description>
			<Point>
				<coordinates>5.931669,51.99615,0</coordinates>
			</Point>
		</Placemark>
		<Placemark>
    <styleUrl>#groep</styleUrl>
			<name>Scouting Tarcisius Ede</name>
			<description><![CDATA[<h1>Scouting Tarcisius Ede</h1><p>Bosrand 17a, 6718zn ede</p>]]></description>
			<Point>
				<coordinates>5.678422,52.051333,0</coordinates>
			</Point>
		</Placemark>
		<Placemark>
    <styleUrl>#groep</styleUrl>
			<name>Schutgraaf</name>
			<description><![CDATA[<h1>Schutgraaf</h1><p>Hannesstraatje  4, 6843nv Arnhem</p>]]></description>
			<Point>
				<coordinates>5.869682,51.966187,0</coordinates>
			</Point>
		</Placemark>
		<Placemark>
    <styleUrl>#groep</styleUrl>
			<name>Scouting Nijkerk</name>
			<description><![CDATA[<h1>Scouting Nijkerk</h1><p>Bunschoterweg  29b, 3861PD Nijkerk</p>]]></description>
			<Point>
				<coordinates>5.455871,52.224174,0</coordinates>
			</Point>
		</Placemark>
		<Placemark>
    <styleUrl>#groep</styleUrl>
			<name>Scouting Mgr. de la Geneste Grave en Scounting Boxmeer</name>
			<description><![CDATA[<h1>Scouting Mgr. de la Geneste Grave en Scounting Boxmeer</h1><p>Overasseltseweg 4B, 6582 BL Heumen</p>]]></description>
			<Point>
				<coordinates>5.829363,51.765314000000004,0</coordinates>
			</Point>
		</Placemark>
		<Placemark>
    <styleUrl>#groep</styleUrl>
			<name>Scouting Lido 76 &amp; Voermangroep</name>
			<description><![CDATA[<h1>Scouting Lido 76 &amp; Voermangroep</h1><p>Veerpolderstraat 128A, 6833BS Arnhem</p>]]></description>
			<Point>
				<coordinates>5.917514,51.968325,0</coordinates>
			</Point>
		</Placemark>
		<Placemark>
    <styleUrl>#groep</styleUrl>
			<name>Scouting Valburg</name>
			<description><![CDATA[<h1>Scouting Valburg</h1><p>Reethsestraat 23, 6675 CE  Valburg</p>]]></description>
			<Point>
				<coordinates>5.794226,51.907504,0</coordinates>
			</Point>
		</Placemark>
		<Placemark>
    <styleUrl>#groep</styleUrl>
			<name>De Geuzen</name>
			<description><![CDATA[<h1>De Geuzen</h1><p>Diependalseweg 3, 6813 GE Arnhem</p>]]></description>
			<Point>
				<coordinates>5.8762,51.987625,0</coordinates>
			</Point>
		</Placemark>
		<Placemark>
    <styleUrl>#groep</styleUrl>
			<name>Scouting Duiven</name>
			<description><![CDATA[<h1>Scouting Duiven</h1><p>De Nieuweling 3, 6921JL Duiven</p>]]></description>
			<Point>
				<coordinates>6.03232,51.943987,0</coordinates>
			</Point>
		</Placemark>
		<Placemark>
    <styleUrl>#groep</styleUrl>
			<name>Scouting Nunspeet</name>
			<description><![CDATA[<h1>Scouting Nunspeet</h1><p>Zandeboslaan 80, 8072pp Nunspeet</p>]]></description>
			<Point>
				<coordinates>5.806682,52.376162,0</coordinates>
			</Point>
		</Placemark>
		<Placemark>
    <styleUrl>#groep</styleUrl>
			<name>St.Werenfridusgroep</name>
			<description><![CDATA[<h1>St.Werenfridusgroep</h1><p>De pas 4, 6662BK Elst</p>]]></description>
			<Point>
				<coordinates>5.843221,51.906629,0</coordinates>
			</Point>
		</Placemark>
		<Placemark>
    <styleUrl>#groep</styleUrl>
			<name>Scouting Weurt</name>
			<description><![CDATA[<h1>Scouting Weurt</h1><p>Kerkstraat 50, 6551ZZ Weurt</p>]]></description>
			<Point>
				<coordinates>5.817234,51.859154,0</coordinates>
			</Point>
		</Placemark>
		<Placemark>
    <styleUrl>#groep</styleUrl>
			<name>Scouting Zetten</name>
			<description><![CDATA[<h1>Scouting Zetten</h1><p>Piersonstraat 21, 6671 CK Zetten</p>]]></description>
			<Point>
				<coordinates>5.709315,51.932593,0</coordinates>
			</Point>
		</Placemark>
		<Placemark>
    <styleUrl>#groep</styleUrl>
			<name>Scouting Bennekom</name>
			<description><![CDATA[<h1>Scouting Bennekom</h1><p>Selterskampweg 68, 6721AV Bennekom</p>]]></description>
			<Point>
				<coordinates>5.686948,52.010021,0</coordinates>
			</Point>
		</Placemark>
		<Placemark>
    <styleUrl>#groep</styleUrl>
			<name>Scouting Lunteren</name>
			<description><![CDATA[<h1>Scouting Lunteren</h1><p>Hessenweg 77, 6741JP Lunteren</p>]]></description>
			<Point>
				<coordinates>5.650855,52.091534,0</coordinates>
			</Point>
		</Placemark>
		<Placemark>
    <styleUrl>#groep</styleUrl>
			<name>St Stanislaus &amp; Saffatin</name>
			<description><![CDATA[<h1>St Stanislaus &amp; Saffatin</h1><p>Steenovenlaan 18, 4101 AM Culemborg</p>]]></description>
			<Point>
				<coordinates>5.216696,51.959888,0</coordinates>
			</Point>
		</Placemark>
		<Placemark>
    <styleUrl>#groep</styleUrl>
			<name>Stadhouder Willem III/Lady Baden-Powell</name>
			<description><![CDATA[<h1>Stadhouder Willem III/Lady Baden-Powell</h1><p>Jachtlaan 4-6, 7313CP Apeldoorn</p>]]></description>
			<Point>
				<coordinates>5.943067,52.225696,0</coordinates>
			</Point>
		</Placemark>
		<Placemark>
    <styleUrl>#groep</styleUrl>
			<name>Scoutinggroep De Markesteen</name>
			<description><![CDATA[<h1>Scoutinggroep De Markesteen</h1><p>Bovenallee 3, 6881 AJ Velp</p>]]></description>
			<Point>
				<coordinates>5.98433,52.016031,0</coordinates>
			</Point>
		</Placemark>
		<Placemark>
    <styleUrl>#groep</styleUrl>
			<name>Scouting Titus Brandsma Deventer</name>
			<description><![CDATA[<h1>Scouting Titus Brandsma Deventer</h1><p>Doornenburg 530, 7423 BS Deventer-Colmschate</p>]]></description>
			<Point>
				<coordinates>6.212575,52.250597,0</coordinates>
			</Point>
		</Placemark>
		<Placemark>
    <styleUrl>#groep</styleUrl>
			<name>Velpsche Woudloopers en de Olmen</name>
			<description><![CDATA[<h1>Velpsche Woudloopers en de Olmen</h1><p>Beekhuizenseweg 73a, 6881AE Velp</p>]]></description>
			<Point>
				<coordinates>5.9788879999999995,52.008434,0</coordinates>
			</Point>
		</Placemark>
		<Placemark>
    <styleUrl>#groep</styleUrl>
			<name>Scouting IJsselgroep en Scouting Kompasnaald</name>
			<description><![CDATA[<h1>Scouting IJsselgroep en Scouting Kompasnaald</h1><p>Kwekerijweg 3, 7213AX Gorssel</p>]]></description>
			<Point>
				<coordinates>6.21412,52.199177,0</coordinates>
			</Point>
		</Placemark>
		<Placemark>
    <styleUrl>#groep</styleUrl>
			<name>Scouting Dannenburcht</name>
			<description><![CDATA[<h1>Scouting Dannenburcht</h1><p>Kloosterlaan 1a, 6851CA Huissen</p>]]></description>
			<Point>
				<coordinates>5.942214,51.935662,0</coordinates>
			</Point>
		</Placemark>
		<Placemark>
    <styleUrl>#groep</styleUrl>
			<name>Gustaaf Adolfgroep</name>
			<description><![CDATA[<h1>Gustaaf Adolfgroep</h1><p>Oostloo 8, 8084PK 't Harde</p>]]></description>
			<Point>
				<coordinates>5.864122,52.408375,0</coordinates>
			</Point>
		</Placemark>
		<Placemark>
    <styleUrl>#groep</styleUrl>
			<name>Scouting Amalgama</name>
			<description><![CDATA[<h1>Scouting Amalgama</h1><p>Weteringweg 50, 6546JZ Nijmegen</p>]]></description>
			<Point>
				<coordinates>5.7856,51.839158,0</coordinates>
			</Point>
		</Placemark>
		<Placemark>
    <styleUrl>#groep</styleUrl>
			<name>Scoutinggroep JJB</name>
			<description><![CDATA[<h1>Scoutinggroep JJB</h1><p>Berghuizerweg  155, 7312SN Apeldoorn</p>]]></description>
			<Point>
				<coordinates>5.922747,52.196468,0</coordinates>
			</Point>
		</Placemark>
		<Placemark>
    <styleUrl>#groep</styleUrl>
			<name>Scouting Jan Hilgers Ede</name>
			<description><![CDATA[<h1>Scouting Jan Hilgers Ede</h1><p>Dwarsweg 1, 6715AT Ede</p>]]></description>
			<Point>
				<coordinates>5.619772,52.041743,0</coordinates>
			</Point>
		</Placemark>
		<Placemark>
    <styleUrl>#groep</styleUrl>
			<name>Scouting Phoenix Tiel</name>
			<description><![CDATA[<h1>Scouting Phoenix Tiel</h1><p>De Hennepe 199, 4003 AD Tiel</p>]]></description>
			<Point>
				<coordinates>5.426503,51.899777,0</coordinates>
			</Point>
		</Placemark>
		<Placemark>
    <styleUrl>#groep</styleUrl>
			<name>Scouting Hertog van Gelre</name>
			<description><![CDATA[<h1>Scouting Hertog van Gelre</h1><p>Polderweg 4, 7327 GX Apeldoorn</p>]]></description>
			<Point>
				<coordinates>6.0051,52.184207,0</coordinates>
			</Point>
		</Placemark>
		<Placemark>
    <styleUrl>#groep</styleUrl>
			<name>Scouting de Woutergroep Deest</name>
			<description><![CDATA[<h1>Scouting de Woutergroep Deest</h1><p>Kweldam  1A, 6653CB Deest</p>]]></description>
			<Point>
				<coordinates>5.660139,51.889036,0</coordinates>
			</Point>
		</Placemark>
		<Placemark>
    <styleUrl>#groep</styleUrl>
			<name>André de Thaye Arnhem</name>
			<description><![CDATA[<h1>André de Thaye Arnhem</h1><p>Voetiuslaan  41, 6828 TD Arnhem</p>]]></description>
			<Point>
				<coordinates>5.93428,51.981338,0</coordinates>
			</Point>
		</Placemark>
		<Placemark>
    <styleUrl>#groep</styleUrl>
			<name>Scouting Jonko Silvolde</name>
			<description><![CDATA[<h1>Scouting Jonko Silvolde</h1><p>Kerkenstraat 5, 7064BH Silvolde</p>]]></description>
			<Point>
				<coordinates>6.381175,51.910275,0</coordinates>
			</Point>
		</Placemark>
		<Placemark>
    <styleUrl>#groep</styleUrl>
			<name>Jan Wandelaar</name>
			<description><![CDATA[<h1>Jan Wandelaar</h1><p>Dasselaarweg 49, 3896LT Zeewolde</p>]]></description>
			<Point>
				<coordinates>5.528677,52.306808,0</coordinates>
			</Point>
		</Placemark>
		<Style id='groep'>
            <IconStyle>
                <color>ff3644DB</color>
                <scale>1.1</scale>
                <Icon>
                    <href>http://www.gstatic.com/mapspro/images/stock/503-wht-blank_maps.png</href>
                </Icon>
                <BalloonStyle>
                    <bgColor>ffffffbb</bgColor>
                    <text><![CDATA[<b><font color="#CC0000" size="+3">$[name]</font></b>]]></text>
                </BalloonStyle>
            </IconStyle>
        </Style>
	</Document>
</kml>

